strict digraph  {
	node [label="\N",
		shape=Mrecord
	];
	"Test I-beam sensors"	 [JIRA=None,
		None=None,
		Procedure=None,
		Status=None,
		Type=None,
		URL="http://localhost",
		_status=enabled,
		fillcolor=yellow,
		label="Test I-beam\nsensors",
		style=filled,
		width=0.5];
	"Test range finder"	 [JIRA=None,
		None=None,
		Procedure=None,
		Status=None,
		Type=None,
		URL="http://localhost",
		_status=enabled,
		fillcolor=yellow,
		label="Test range\nfinder",
		style=filled,
		width=0.5];
	"Test eddy brakes actuators and sensors"	 [JIRA=None,
		None=None,
		Procedure=None,
		Status=None,
		Type=None,
		URL="http://localhost",
		_status=enabled,
		fillcolor=yellow,
		label="Test eddy brakes\nactuators and\nsensors",
		style=filled,
		width=0.5];
	"Battery Management System Tests"	 [JIRA=None,
		None=None,
		Procedure=None,
		Status=None,
		Type=None,
		URL="http://localhost",
		_status=pending,
		fillcolor=white,
		label="Battery\nManagement\nSystem Tests",
		style=filled,
		width=0.5];
	"Detect temperature and avoir overheat"	 [JIRA=None,
		None=None,
		Procedure=None,
		Status=None,
		Type=None,
		URL="http://localhost",
		_status=enabled,
		fillcolor=yellow,
		label="Detect\ntemperature and\navoir overheat",
		style=filled,
		width=0.5];
	"Battery Management System Tests" -> "Detect temperature and avoir overheat";
	"Detect voltage and Discharge batteries"	 [JIRA=None,
		None=None,
		Procedure=None,
		Status=None,
		Type=None,
		URL="http://localhost",
		_status=enabled,
		fillcolor=yellow,
		label="Detect voltage\nand Discharge\nbatteries",
		style=filled,
		width=0.5];
	"Battery Management System Tests" -> "Detect voltage and Discharge batteries";
	"Test height sensors"	 [JIRA=None,
		None=None,
		Procedure=None,
		Status=None,
		Type=None,
		URL="http://localhost",
		_status=enabled,
		fillcolor=yellow,
		label="Test height\nsensors",
		style=filled,
		width=0.5];
	"Test accelerometers"	 [JIRA=None,
		None=None,
		Procedure=None,
		Status=None,
		Type=None,
		URL="http://localhost",
		_status=enabled,
		fillcolor=yellow,
		label="Test\naccelerometers",
		style=filled,
		width=0.5];
	"Test hover engines actuators and sensors"	 [JIRA=None,
		None=None,
		Procedure=None,
		Status=None,
		Type=None,
		URL="http://localhost",
		_status=enabled,
		fillcolor=yellow,
		label="Test hover\nengines\nactuators and\nsensors",
		style=filled,
		width=0.5];
	"Pod Tests"	 [JIRA=None,
		None=None,
		Procedure=None,
		Status=None,
		Type=None,
		URL="http://localhost",
		_status=pending,
		fillcolor=white,
		label="Pod Tests",
		style=filled,
		width=0.5];
	"Pod Tests" -> "Battery Management System Tests";
	"Flight Control Unit Tests"	 [JIRA=None,
		None=None,
		Procedure=None,
		Status=None,
		Type=None,
		URL="http://localhost",
		_status=pending,
		fillcolor=white,
		label="Flight Control\nUnit Tests",
		style=filled,
		width=0.5];
	"Pod Tests" -> "Flight Control Unit Tests";
	"Flight Control Unit Tests" -> "Test I-beam sensors";
	"Flight Control Unit Tests" -> "Test range finder";
	"Flight Control Unit Tests" -> "Test eddy brakes actuators and sensors";
	"Flight Control Unit Tests" -> "Test height sensors";
	"Flight Control Unit Tests" -> "Test accelerometers";
	"Flight Control Unit Tests" -> "Test hover engines actuators and sensors";
	"Test contrast sensors"	 [JIRA=None,
		None=None,
		Procedure=None,
		Status=None,
		Type=None,
		URL="http://localhost",
		_status=enabled,
		fillcolor=yellow,
		label="Test contrast\nsensors",
		style=filled,
		width=0.5];
	"Flight Control Unit Tests" -> "Test contrast sensors";
}
